<svg xmlns="http://www.w3.org/2000/svg" width="168.5" height="168.5" viewBox="0 0 168.5 168.5">
  <circle id="Ellipse_897" data-name="Ellipse 897" cx="84" cy="84" r="84" transform="translate(0.25 0.25)" fill="none" stroke="#113f35" stroke-miterlimit="10" stroke-width="0.5"/>
</svg>
