<svg xmlns="http://www.w3.org/2000/svg" width="56" height="56" viewBox="0 0 56 56">
  <g id="Group_3312" data-name="Group 3312" transform="translate(-268 -2712)">
    <g id="Group_1881" data-name="Group 1881" transform="translate(31 -596)">
      <text id="_2" data-name="2" transform="translate(260 3327)" font-size="16" font-family="TTNormsProTrl-Bold, TT Norms Pro Trl" font-weight="700" letter-spacing="-0.005em"><tspan x="0" y="15">2</tspan></text>
      <g id="Ellipse_152" data-name="Ellipse 152" transform="translate(245 3316)" fill="none" stroke="#000" stroke-width="1">
        <circle cx="20" cy="20" r="20" stroke="none"/>
        <circle cx="20" cy="20" r="19.5" fill="none"/>
      </g>
      <g id="Ellipse_634" data-name="Ellipse 634" transform="translate(249 3320)" fill="none" stroke="#000" stroke-width="1">
        <circle cx="16" cy="16" r="16" stroke="none"/>
        <circle cx="16" cy="16" r="15.5" fill="none"/>
      </g>
      <g id="Group_1880" data-name="Group 1880" transform="translate(-4.261 -4.261)">
        <g id="Ellipse_152-2" data-name="Ellipse 152" transform="translate(241.261 3312.261)" fill="none" stroke="#000" stroke-width="1">
          <circle cx="28" cy="28" r="28" stroke="none"/>
          <circle cx="28" cy="28" r="27.5" fill="none"/>
        </g>
        <g id="Group_1879" data-name="Group 1879" transform="translate(4.261 4.261)">
          <g id="Ellipse_152-3" data-name="Ellipse 152" transform="translate(241 3312)" fill="none" stroke="#000" stroke-width="1">
            <circle cx="24" cy="24" r="24" stroke="none"/>
            <circle cx="24" cy="24" r="23.5" fill="none"/>
          </g>
        </g>
      </g>
    </g>
  </g>
</svg>
