<svg xmlns="http://www.w3.org/2000/svg" width="41.155" height="41.155" viewBox="0 0 41.155 41.155">
  <g id="Group_25" data-name="Group 25" transform="translate(-6)">
    <path id="Path_15" data-name="Path 15" d="M1191.653,1264.5a20.578,20.578,0,1,0,20.578,20.578A20.578,20.578,0,0,0,1191.653,1264.5Zm9.18,15.876v.615a13.459,13.459,0,0,1-20.718,11.325,9.625,9.625,0,0,0,1.128.068,9.492,9.492,0,0,0,5.868-2.014,4.725,4.725,0,0,1-4.415-3.283,4.822,4.822,0,0,0,2.135-.082,4.729,4.729,0,0,1-3.8-4.634v-.063a4.731,4.731,0,0,0,2.145.591,4.731,4.731,0,0,1-1.453-6.294,13.449,13.449,0,0,0,9.751,4.914,4.965,4.965,0,0,1-.121-1.08,4.731,4.731,0,0,1,8.178-3.234,9.436,9.436,0,0,0,3-1.147,4.726,4.726,0,0,1-2.077,2.619,9.606,9.606,0,0,0,2.716-.746A9.6,9.6,0,0,1,1200.833,1280.377Z" transform="translate(-1165.075 -1264.5)" fill="#fff"/>
  </g>
</svg>
